{
  "settings": {
    "number_of_shards": 10,
    "index": {
      "max_result_window": 100000
    },
    "analysis": {
      "filter": {
        "specialCharactersFilter": {
          "pattern": "[^A-Za-z]",
          "type": "pattern_replace",
          "replacement": ""
        }
      },
      "tokenizer": {
        "edge_ngram_tokenizer": {
          "type": "edge_ngram",
          "min_gram": 1,
          "max_gram": 20,
          "token_chars": [
            "letter"
          ]
        }
      },
      "analyzer": {
        "folding": {
          "tokenizer": "keyword",
          "filter": [
            "lowercase",
            "asciifolding",
            "specialCharactersFilter"
          ]
        },
        "autocomplete": {
          "filter": [
            "lowercase",
            "asciifolding"
          ],
          "tokenizer": "edge_ngram_tokenizer"
        }
      }
    }
  },
  "mappings": {
    "_doc": {
      "properties": {
        "id": {
          "type": "keyword"
        },
        "userId": {
          "type": "long"
        },
        "expertIds": {
          "type": "long"
        },
        "expertCode": {
          "type": "keyword"
        },
        "fullName": {
          "type": "text",
          "analyzer": "autocomplete",
          "fields": {
            "folded": {
              "type": "text",
              "analyzer": "folding"
            },
            "raw": {
              "type": "keyword"
            }
          }
        },
        "username": {
          "type": "text",
          "analyzer": "standard"
        },
        "email": {
          "type": "text",
          "analyzer": "autocomplete"
        },
        "description": {
          "type": "text",
          "analyzer": "english",
          "norms": false
        },
        "keywords": {
          "type": "text",
          "analyzer": "english",
          "norms": false
        },
        "organizationIds": {
          "type": "long"
        },
        "verifiedOrganizationIds": {
          "type": "long"
        },
        "favoriteOrganizationIds": {
          "type": "long"
        },
        "retiredOrganizationIds": {
          "type": "long"
        },
        "visibleOrganizationIds": {
          "type": "long"
        },
        "activeOrganizationIds": {
          "type": "long"
        },
        "claimable": {
          "type": "boolean"
        },
        "claimedById": {
          "type": "long"
        },
        "expertRank": {
          "type": "double"
        },
        "retirementDate": {
          "type": "date",
          "format": "epoch_millis"
        },
        "roles": {
          "type": "keyword"
        }
      }
    }
  }
}
