{
  "settings": {
    "number_of_shards": 10,
    "index": {
      "max_result_window": 100000
    }
  },
  "mappings": {
    "_doc": {
      "properties": {
        "itemId": {
          "type": "long"
        },
        "originalItemId": {
          "type": "long"
        },
        "name": {
          "type": "text",
          "analyzer": "english",
          "norms": false
        },
        "executiveSummary": {
          "type": "text",
          "analyzer": "english",
          "norms": false
        },
        "useCaseDescription": {
          "type": "text",
          "analyzer": "english",
          "norms": false
        },
        "painDescription": {
          "type": "text",
          "analyzer": "english",
          "norms": false
        },
        "competitiveAdvantageDescription": {
          "type": "text",
          "analyzer": "english",
          "norms": false
        },
        "technicalPrinciplesDescription": {
          "type": "text",
          "analyzer": "english",
          "norms": false
        },
        "ideaScore": {
          "type": "integer"
        },
        "technologyReadinessLevel": {
          "type": "integer"
        },
        "expertCodes": {
          "type": "keyword"
        },
        "originalExpertCodes": {
          "type": "keyword"
        },
        "teamLeaderExpertCodes": {
          "type": "keyword"
        },
        "domainId": {
          "type": "long"
        },
        "investmentRangeFrom": {
          "type": "integer"
        },
        "investmentRangeTo": {
          "type": "integer"
        },
        "statusId": {
          "type": "long"
        },
        "categoryIds": {
          "type": "long"
        },
        "priorityId": {
          "type": "long"
        },
        "ownerOrganizationId": {
          "type": "long"
        },
        "link": {
          "type": "text"
        },
        "commercializationProjectOrganizations": {
          "type": "nested",
          "properties": {
            "relation": {
              "type": "keyword"
            },
            "organizationId": {
              "type": "long"
            }
          }
        }
      }
    }
  }
}
