{
  "settings": {
    "number_of_shards": 10,
    "index": {
      "max_result_window": 100000
    },
    "analysis": {
      "tokenizer": {
        "edge_ngram_tokenizer": {
          "type": "edge_ngram",
          "min_gram": 1,
          "max_gram": 20,
          "token_chars": [
            "letter"
          ]
        }
      },
      "analyzer": {
        "folding": {
          "tokenizer": "standard",
          "filter": [
            "lowercase",
            "asciifolding"
          ]
        },
        "autocomplete": {
          "filter": [
            "lowercase",
            "asciifolding"
          ],
          "tokenizer": "edge_ngram_tokenizer"
        },
        "lowercase": {
          "filter": [
            "lowercase"
          ],
          "tokenizer": "keyword"
        }
      }
    }
  },
  "mappings": {
    "_doc": {
      "properties": {
        "thesisId": {
          "type": "long"
        },
        "originalThesisId": {
          "type": "long"
        },
        "thesisBk": {
          "type": "keyword"
        },
        "thesisName": {
          "type": "text",
          "analyzer": "english",
          "norms": false
        },
        "thesisTypeId": {
          "type": "long"
        },
        "thesisDescription": {
          "type": "text",
          "analyzer": "english",
          "norms": false
        },
        "year": {
          "type": "integer"
        },
        "keywords": {
          "type": "text",
          "analyzer": "english",
          "norms": false,
          "fields": {
            "raw": {
              "type": "text",
              "analyzer": "lowercase",
              "fielddata": true
            }
          }
        },
        "assignee": {
          "type": "keyword"
        },
        "supervisor": {
          "type": "keyword"
        },
        "reviewer": {
          "type": "keyword"
        },
        "id": {
          "type": "keyword"
        },
        "organizationIds": {
          "type": "long"
        },
        "evidenceOrganizationIds": {
          "type": "long"
        },
        "verifiedOrganizationIds": {
          "type": "long"
        },
        "affiliatedOrganizationIds": {
          "type": "long"
        },
        "ownerUserId": {
          "type": "long"
        },
        "universityId": {
          "type": "long"
        },
        "confidentiality": {
          "type": "keyword"
        },
        "translationUnavailable": {
          "type": "boolean"
        }
      }
    }
  }
}
