<?xml version="1.0" encoding="UTF-8"?>
<svg width="18px" height="18px" viewBox="0 0 18 18" xmlns="http://www.w3.org/2000/svg">
  <path
    d="M2.043 12.6778c.9037-.903 2.3737-.9037 3.2782 0 .9037.9037.9037 2.3744 0 3.2782-.4414.4413-1.7367.9732-2.8813 1.383l-.1243.0442-.1227.0432-.121.042-.1189.041a40.5483 40.5483 0 01-.0586.02l-.1152.0391-.1125.0378-.1094.0364-.106.035-.1024.0335-.146.0473-.092.0295-.0872.0278-.1216.0384-.0743.0233-.1603.0496-.1712.052a.384.384 0 01-.1213.0197.3741.3741 0 01-.2655-.1101.3762.3762 0 01-.0937-.3728l.0324-.1072.042-.1368.0427-.1372.0502-.1594.0278-.0873.0295-.092.0474-.146.0335-.1023.035-.106.0364-.1094.0377-.1125.0391-.1153.0404-.1177.0206-.0598.042-.121.0433-.1227.0442-.1242c.4097-1.1446.9416-2.44 1.383-2.8813zm5.5304-8.0533c2.5364-2.8492 6.5436-4.686 10.0573-4.623a.3767.3767 0 01.3667.366c.0817 3.5092-1.77 7.5149-4.6221 10.0566-.0458 2.424-1.0395 4.7841-2.7532 6.4979-.075.0742-.1838.1207-.2903.1207a.3446.3446 0 01-.1072-.0165c-.1308-.0438-.2396-.1432-.2638-.2787l-.0017-.0108-.414-2.8904-.3998.357a.3732.3732 0 01-.2497.0952.3742.3742 0 01-.2563-.1006l-.0092-.0089L3.81 9.369a.3748.3748 0 01-.0221-.5071l.007-.0082.357-.3997-2.8904-.414a.3754.3754 0 01-.303-.2542.3756.3756 0 01.093-.384c1.7377-1.7378 4.098-2.7315 6.5219-2.7772zm6.6013-.801c-.7312-.7312-1.9207-.7312-2.652 0-.7304.7312-.7304 1.9207 0 2.652.3653.3652.8453.5482 1.326.5482.4808 0 .9608-.183 1.326-.5483.7313-.7305.7313-1.9207 0-2.652z"
    fill="#949EA9" fill-rule="nonzero"/>
</svg>
