<?xml version="1.0" encoding="UTF-8"?>
<svg width="1239px" height="1042px" viewBox="0 0 1239 1042" xmlns="http://www.w3.org/2000/svg"
     xmlns:xlink="http://www.w3.org/1999/xlink">
  <defs>
    <linearGradient x1="3.59394361%" y1="24.5186547%" x2="83.0948285%" y2="61.8992097%" id="b">
      <stop stop-color="#0714B9" offset="0%"/>
      <stop stop-color="#303FFB" offset="99.9453671%"/>
    </linearGradient>
    <linearGradient x1="34.3758967%" y1="25.9733295%" x2="79.7960454%" y2="34.863506%" id="c">
      <stop stop-color="#FFF" stop-opacity="0" offset="0%"/>
      <stop stop-color="#FFF" stop-opacity="0.110303759" offset="100%"/>
    </linearGradient>
    <path
      d="M1339.3411 1082.664L74.8934 949.0035c-45.5856-4.8187-78.6338-45.6796-73.815-91.2652a83 83 0 018.012-27.8067l280.974-573.2119c25.8677-52.7726 75.8697-89.5933 133.9419-98.6327L1435.3412.6641l-96 1082z"
      id="a"/>
  </defs>
  <g transform="translate(-.3411 -30.664)" fill="none" fill-rule="evenodd">
    <mask id="d" fill="#fff">
      <use xlink:href="#a"/>
    </mask>
    <use fill="url(#b)" xlink:href="#a"/>
    <path
      d="M500.117 390.5058l516.4756 132.6536c53.4923 13.7391 85.7185 68.241 71.9794 121.7332a100 100 0 01-22.7196 42.233l-26.2257 28.9659c-282.6862 312.1596-427.1148 464.0784-433.2856 455.7564L500.117 390.5058z"
      fill="url(#c)" mask="url(#d)"/>
  </g>
</svg>
